<?xml version="1.0" standalone="no"?>
<!DOCTYPE svg PUBLIC "-//W3C//DTD SVG 20010904//EN"
 "http://www.w3.org/TR/2001/REC-SVG-20010904/DTD/svg10.dtd">
<svg version="1.0" xmlns="http://www.w3.org/2000/svg"
 width="512.000000pt" height="512.000000pt" viewBox="0 0 512.000000 512.000000"
 preserveAspectRatio="xMidYMid meet">
<metadata>
Created by potrace 1.11, written by Peter Selinger 2001-2013
</metadata>
<g transform="translate(0.000000,512.000000) scale(0.100000,-0.100000)"
fill="#000000" stroke="none">
<path d="M2172 3746 c-172 -33 -342 -107 -473 -206 -374 -282 -522 -784 -363
-1229 191 -535 767 -832 1312 -675 311 89 581 329 703 624 41 97 72 142 152
217 87 81 152 107 257 101 106 -6 167 -40 237 -133 30 -38 61 -76 71 -83 15
-12 15 -18 -1 -95 -9 -45 -20 -92 -23 -103 -5 -20 -1 -22 43 -27 95 -9 297 1
347 17 193 63 318 196 352 375 14 73 14 91 0 179 -27 170 -110 292 -240 353
-97 46 -154 54 -281 39 -60 -7 -117 -14 -125 -16 -8 -1 -26 -3 -39 -3 -21 -1
-23 -5 -19 -36 4 -32 -2 -41 -77 -118 -86 -90 -136 -120 -225 -137 -121 -23
-256 46 -356 181 -19 27 -62 102 -94 166 -32 65 -82 150 -111 188 -149 197
-365 341 -609 405 -109 28 -330 36 -438 16z"/>
<path d="M825 1718 c-11 -6 -22 -14 -25 -18 -3 -3 -45 -31 -95 -60 -114 -68
-184 -134 -225 -211 -148 -278 -12 -603 289 -695 25 -8 83 -14 129 -14 179 0
308 78 437 264 22 31 50 69 62 84 13 15 23 32 23 38 0 7 7 14 15 18 25 9 17
32 -23 60 -34 23 -39 32 -49 92 -34 197 -192 354 -391 387 -57 10 -74 17 -92
40 -24 30 -27 31 -55 15z"/>
</g>
</svg>
