<?xml version="1.0" encoding="UTF-8" standalone="no"?>
<svg
   xmlns:dc="http://purl.org/dc/elements/1.1/"
   xmlns:cc="http://creativecommons.org/ns#"
   xmlns:rdf="http://www.w3.org/1999/02/22-rdf-syntax-ns#"
   xmlns:svg="http://www.w3.org/2000/svg"
   xmlns="http://www.w3.org/2000/svg"
   xmlns:xlink="http://www.w3.org/1999/xlink"
   xmlns:sodipodi="http://sodipodi.sourceforge.net/DTD/sodipodi-0.dtd"
   xmlns:inkscape="http://www.inkscape.org/namespaces/inkscape"
   inkscape:version="1.0 (4035a4fb49, 2020-05-01)"
   sodipodi:docname="header-background.svg"
   id="svg3781"
   version="1.1"
   viewBox="0 0 795.769 607"
   height="607mm"
   width="795.76898mm">
  <defs
     id="defs3775">
    <clipPath
       clipPathUnits="userSpaceOnUse"
       id="clipPath16677-5">
      <rect
         style="opacity:1;fill:url(#linearGradient16681);fill-opacity:1;stroke:none;stroke-width:1.065;stroke-linecap:round;stroke-linejoin:bevel;stroke-miterlimit:4;stroke-dasharray:4.26, 4.26;stroke-dashoffset:1.20756;stroke-opacity:1;paint-order:markers fill stroke"
         id="rect16679-5"
         width="143.04036"
         height="224.069"
         x="202.79153"
         y="435.00186"
         inkscape:export-filename="C:\Users\user\Desktop\splash_gredient_bg.png"
         inkscape:export-xdpi="124.30058"
         inkscape:export-ydpi="124.30058" />
    </clipPath>
    <linearGradient
       id="SVGID_12_-2"
       gradientUnits="userSpaceOnUse"
       x1="378.45239"
       y1="2.329293"
       x2="548.52838"
       y2="24.680595"
       gradientTransform="matrix(-0.00926101,-0.52178465,0.52178465,-0.00926101,-24.13867,481.45217)">
      <stop
         offset="0"
         style="stop-color:#2b32b2;stop-opacity:1"
         id="stop948-7" />
      <stop
         offset="1"
         style="stop-color:#4058ec;stop-opacity:1"
         id="stop952-8" />
    </linearGradient>
    <linearGradient
       id="SVGID_8_-3"
       gradientUnits="userSpaceOnUse"
       x1="515.08429"
       y1="-37.280499"
       x2="694.78833"
       y2="207.3586"
       gradientTransform="matrix(-0.25275635,0.45658245,-0.45658245,-0.25275635,353.24426,15.137164)">
      <stop
         offset="0"
         style="stop-color:#4058ec;stop-opacity:1"
         id="stop908-4" />
      <stop
         offset="1"
         style="stop-color:#2b32b2;stop-opacity:1"
         id="stop910-2" />
    </linearGradient>
    <clipPath
       clipPathUnits="userSpaceOnUse"
       id="clipPath16677-5-1">
      <rect
         style="opacity:1;fill:url(#linearGradient16681);fill-opacity:1;stroke:none;stroke-width:1.065;stroke-linecap:round;stroke-linejoin:bevel;stroke-miterlimit:4;stroke-dasharray:4.26, 4.26;stroke-dashoffset:1.20756;stroke-opacity:1;paint-order:markers fill stroke"
         id="rect16679-5-5"
         width="143.04036"
         height="224.069"
         x="202.79153"
         y="435.00186"
         inkscape:export-filename="C:\Users\user\Desktop\splash_gredient_bg.png"
         inkscape:export-xdpi="124.30058"
         inkscape:export-ydpi="124.30058" />
    </clipPath>
    <filter
       inkscape:collect="always"
       style="color-interpolation-filters:sRGB"
       id="filter3775-7"
       x="-0.13253522"
       width="1.2650704"
       y="-0.10568994"
       height="1.2113799">
      <feGaussianBlur
         inkscape:collect="always"
         stdDeviation="10.610856"
         id="feGaussianBlur3777-4" />
    </filter>
    <linearGradient
       y2="24.680595"
       x2="548.52838"
       y1="2.329293"
       x1="378.45239"
       gradientTransform="matrix(-0.00916858,-0.51657704,0.51657704,-0.00916858,-380.6569,669.15991)"
       gradientUnits="userSpaceOnUse"
       id="linearGradient3598"
       xlink:href="#SVGID_12_-2"
       inkscape:collect="always" />
    <filter
       inkscape:collect="always"
       style="color-interpolation-filters:sRGB"
       id="filter3810-4"
       x="-0.10268493"
       width="1.2053699"
       y="-0.064457916"
       height="1.1289158">
      <feGaussianBlur
         inkscape:collect="always"
         stdDeviation="8.4210016"
         id="feGaussianBlur3812-4" />
    </filter>
    <linearGradient
       y2="135.2262"
       x2="190.49998"
       y1="4.5831509"
       x1="91.0448"
       gradientTransform="matrix(-0.04539151,-0.40341428,0.40341428,-0.04539151,305.68515,740.83117)"
       gradientUnits="userSpaceOnUse"
       id="linearGradient3600"
       xlink:href="#SVGID_8_-3"
       inkscape:collect="always" />
    <filter
       inkscape:collect="always"
       style="color-interpolation-filters:sRGB"
       id="filter3929-7"
       x="-0.25560001"
       width="1.5112"
       y="-0.25560001"
       height="1.5112">
      <feGaussianBlur
         inkscape:collect="always"
         stdDeviation="4.2127022"
         id="feGaussianBlur3931-1" />
    </filter>
    <linearGradient
       y2="272.14395"
       x2="45.970356"
       y1="240.33887"
       x1="39.555885"
       gradientTransform="matrix(0.99001962,0,0,0.99001962,513.67815,0.26258923)"
       gradientUnits="userSpaceOnUse"
       id="linearGradient3602"
       xlink:href="#linearGradient3741"
       inkscape:collect="always" />
    <linearGradient
       id="linearGradient3741"
       inkscape:collect="always">
      <stop
         id="stop3737"
         offset="0"
         style="stop-color:#2b32b2;stop-opacity:1;" />
      <stop
         id="stop3739"
         offset="1"
         style="stop-color:#4058ec;stop-opacity:1" />
    </linearGradient>
    <linearGradient
       y2="135.2262"
       x2="190.49998"
       y1="4.5831509"
       x1="91.0448"
       gradientTransform="matrix(-0.04539151,-0.40341428,0.40341428,-0.04539151,305.68515,740.83117)"
       gradientUnits="userSpaceOnUse"
       id="linearGradient5722"
       xlink:href="#SVGID_8_-3"
       inkscape:collect="always" />
    <linearGradient
       y2="272.14395"
       x2="45.970356"
       y1="240.33887"
       x1="39.555885"
       gradientTransform="matrix(0.99001962,0,0,0.99001962,513.67815,0.26258923)"
       gradientUnits="userSpaceOnUse"
       id="linearGradient5724"
       xlink:href="#linearGradient3741"
       inkscape:collect="always" />
    <linearGradient
       y2="272.14395"
       x2="45.970356"
       y1="240.33887"
       x1="39.555885"
       gradientTransform="matrix(0.99001962,0,0,0.99001962,513.67815,0.26258923)"
       gradientUnits="userSpaceOnUse"
       id="linearGradient5726"
       xlink:href="#linearGradient3741"
       inkscape:collect="always" />
    <clipPath
       id="clipPath5772"
       clipPathUnits="userSpaceOnUse">
      <rect
         y="1.5301391e-06"
         x="7.3271891e-05"
         height="607"
         width="795.76898"
         id="rect5774"
         style="opacity:0.192683;fill:#ffffff;stroke-width:122.68;stroke-linecap:round;paint-order:stroke fill markers" />
    </clipPath>
  </defs>
  <sodipodi:namedview
     borderlayer="true"
     inkscape:pagecheckerboard="true"
     scale-x="1"
     inkscape:window-maximized="1"
     inkscape:window-y="-9"
     inkscape:window-x="-9"
     inkscape:window-height="1000"
     inkscape:window-width="1920"
     showgrid="false"
     inkscape:document-rotation="0"
     inkscape:current-layer="svg3781"
     inkscape:document-units="mm"
     inkscape:cy="991.55094"
     inkscape:cx="880.85715"
     inkscape:zoom="0.175"
     inkscape:pageshadow="2"
     inkscape:pageopacity="0"
     borderopacity="1.0"
     bordercolor="#666666"
     pagecolor="#000000"
     id="base" />
  <metadata
     id="metadata3778">
    <rdf:RDF>
      <cc:Work
         rdf:about="">
        <dc:format>image/svg+xml</dc:format>
        <dc:type
           rdf:resource="http://purl.org/dc/dcmitype/StillImage" />
        <dc:title></dc:title>
      </cc:Work>
    </rdf:RDF>
  </metadata>
  <g
     clip-path="url(#clipPath5772)"
     id="g5770">
    <path
       style="opacity:0.147;fill:#ffffff;fill-opacity:1;stroke-width:1.34744"
       inkscape:connector-curvature="0"
       class="st4"
       d="m 915.19727,181.16478 c -17.4788,58.02614 -34.06646,121.54431 -81.87516,158.79581 -20.5812,16.02515 -51.24231,25.25716 -72.05265,9.52124 -14.23635,-10.7596 -19.27987,-30.13692 -18.73852,-47.97334 0.54131,-17.83646 5.66942,-35.21283 7.64693,-52.95223 4.27392,-38.55055 -7.16486,-78.6177 -31.17561,-109.06748 C 701.08983,116.78599 677.06402,99.850572 656.16782,79.851283 635.27914,59.863111 616.66871,34.749599 614.87062,5.9014578 c -2.17924,-34.8836798 20.81431,-66.7430558 48.0306,-88.6794088 27.21639,-21.936279 59.31662,-37.189279 86.38158,-59.299689 21.56985,-17.61268 39.55398,-39.28754 61.15422,-56.85572 21.60017,-17.56815 48.52581,-31.24942 76.2333,-28.50216 28.8486,2.86601 52.94249,22.72331 73.37019,43.30305 45.77759,46.1532 102.02159,130.182523 62.99999,197.012234 -12.2068,20.915277 -34.70797,35.607712 -50.50639,53.671748 -28.73851,32.857793 -44.88143,73.255978 -57.33684,114.613268 z"
       id="path3190" />
    <g
       id="g3196"
       transform="matrix(0.05589854,1.7426805,1.7426805,-0.05589854,-38.114137,678.75945)">
      <path
         transform="matrix(0.99001962,0,0,0.99001962,-356.75914,192.51282)"
         id="path3192"
         d="m -83.371427,306.94822 c 11.453913,-11.67772 28.872316,-17.75362 44.804917,-14.0497 15.618662,3.63141 27.738598,15.48814 40.9468288,24.58753 13.2082242,9.09937 30.9736462,15.65442 44.9072392,7.72085 13.024933,-7.41142 17.089493,-25.10002 13.368923,-39.61741 -3.72056,-14.51739 -13.425574,-26.63235 -22.76415,-38.34985 -9.338575,-11.71751 -18.824032,-24.0814 -21.980998,-38.73355 -3.561339,-16.54562 1.451356,-33.60736 2.035616,-50.52524 0.58428,-16.91788 -5.747418,-36.7144 -21.8818744,-41.83179 -19.9174966,-6.31487 -40.0032516,13.67786 -60.6874556,10.73524 -18.182071,-2.58456 -33.808169,-22.44916 -51.135209,-16.34452 -10.26774,3.61438 -15.56247,15.84486 -14.20358,26.64657 1.35889,10.80171 7.9227,20.23459 15.27859,28.26321 7.3497,8.02459 15.7233,15.18809 22.025482,24.06276 13.92656,19.62007 15.858211,47.08516 4.82144,68.4617 -6.284119,12.16697 -16.145622,22.03711 -24.263312,33.07045 -8.11365,11.02717 -14.72761,24.36232 -12.84998,37.92939 1.39558,10.08997 14.77456,29.31342 23.91485,17.79258 3.52742,-4.44467 3.26,-15.50838 5.513179,-21.03922 2.837236,-6.96058 6.885417,-13.41369 12.149494,-18.779 z"
         class="st8"
         inkscape:connector-curvature="0"
         style="opacity:0.266;fill:#000000;fill-opacity:1;stroke-width:0.521875;filter:url(#filter3775-7)" />
      <path
         style="fill:url(#linearGradient3598);stroke-width:0.516666"
         inkscape:connector-curvature="0"
         class="st8"
         d="m -439.29849,496.39758 c 11.3396,-11.56117 28.58416,-17.57643 44.35775,-13.90948 15.46278,3.59517 27.46175,15.33356 40.53816,24.34214 13.0764,9.00855 30.66452,15.49818 44.45905,7.64379 12.89494,-7.33745 16.91893,-24.84951 13.2355,-39.22201 -3.68343,-14.3725 -13.29159,-26.36655 -22.53696,-37.96711 -9.24537,-11.60056 -18.63616,-23.84105 -21.76162,-38.34697 -3.52579,-16.38049 1.43687,-33.27195 2.0153,-50.02098 0.57845,-16.74903 -5.69005,-36.34798 -21.66348,-41.41429 -19.71872,-6.25185 -39.60401,13.54135 -60.08178,10.6281 -18.0006,-2.55877 -33.47075,-22.22511 -50.62486,-16.1814 -10.16526,3.57831 -15.40715,15.68672 -14.06182,26.38063 1.34533,10.6939 7.84363,20.03264 15.12611,27.98113 7.27634,7.9445 15.56637,15.03651 21.80566,23.82261 13.78756,19.42425 15.69994,46.61523 4.77332,67.77842 -6.22141,12.04554 -15.98449,21.81717 -24.02116,32.7404 -8.03267,10.91711 -14.58062,24.11917 -12.72173,37.55084 1.38165,9.98926 14.6271,29.02086 23.67617,17.615 3.49221,-4.40031 3.22746,-15.3536 5.45815,-20.82924 2.80892,-6.89111 6.8167,-13.27982 12.02824,-18.59158 z"
         id="path3194" />
    </g>
    <g
       id="g3202"
       transform="matrix(0,3.5514452,3.5514452,0,-1544.8852,-598.49461)">
      <path
         transform="matrix(-0.04539151,-0.40341428,0.40341428,-0.04539151,305.68514,740.83117)"
         style="opacity:0.472;fill:#0f0f0f;fill-opacity:1;stroke:none;stroke-width:8.59334;stroke-linecap:round;stroke-linejoin:bevel;stroke-miterlimit:4;stroke-dasharray:34.3733, 34.3733;stroke-dashoffset:1.20756;stroke-opacity:1;paint-order:markers fill stroke;filter:url(#filter3810-4)"
         d="m 168.53459,-98.493354 c -23.25177,0.26235 -53.80955,17.44854 -48.24371,42.76314 6.89015,31.41896 15.52278,55.78946019 1.28397,87.558144 -6.56735,14.651169 -16.51604,27.690225 -22.027502,42.763914 -5.51146,15.073689 -5.5034,33.919846 5.986582,45.125496 12.71472,12.40402 33.17391,10.42836 50.07321,15.91758 19.36492,6.28699 34.58459,23.87755 38.03521,43.9459 1.63021,9.50695 1.08605,20.12039 7.15512,27.61798 5.26433,6.49923 14.4914,8.80011 22.76198,7.50063 8.27059,-1.2995 15.71988,-5.68067 22.48764,-10.59908 42.75086,-33.1197 61.66003,-93.02031 33.16261,-136.069874 C 262.92192,44.409237 233.80362,29.17194 225.68939,1.6507062 c -5.53943,-18.7814202 0.19627,-39.3357502 -4.42037,-58.3620802 -5.35303,-22.00702 -25.64295,-39.5215 -48.19389,-41.60646 -1.47231,-0.13552 -2.99043,-0.193 -4.54054,-0.17552 z"
         id="path3198"
         inkscape:connector-curvature="0" />
      <path
         inkscape:connector-curvature="0"
         id="path3200"
         d="m 258.30147,677.31267 c 1.16127,9.36819 9.48149,20.91554 19.44112,17.52113 12.36211,-4.20574 21.80166,-8.79449 35.26393,-4.49237 6.20858,1.98432 11.92032,5.4059 18.25144,6.94508 6.33111,1.53919 13.93355,0.68048 17.93253,-4.46338 4.42681,-5.69234 2.70113,-13.85619 4.14848,-20.92277 1.65726,-8.09746 8.0627,-15.03575 16.00193,-17.33872 3.76123,-1.08918 8.06754,-1.35143 10.8167,-4.1401 2.38293,-2.41872 2.8923,-6.2455 1.99266,-9.52298 -0.89965,-3.27748 -3.00522,-6.08377 -5.29657,-8.59072 -15.30149,-15.74296 -40.32456,-20.65221 -56.39782,-7.20186 -8.78983,7.64292 -13.61505,20.08131 -24.3492,24.60394 -7.32524,3.0872 -15.8775,1.70631 -23.34344,4.43238 -8.63496,3.15842 -14.77957,12.13868 -14.59705,21.33068 0.0122,0.60011 0.0578,1.21516 0.13525,1.8397 z"
         style="opacity:1;fill:url(#linearGradient5722);fill-opacity:1;stroke:none;stroke-width:3.48855;stroke-linecap:round;stroke-linejoin:bevel;stroke-miterlimit:4;stroke-dasharray:13.9542, 13.9542;stroke-dashoffset:1.20756;stroke-opacity:1;paint-order:markers fill stroke" />
    </g>
    <g
       transform="matrix(3.4143281,1.3091322,1.3091322,-3.4143281,-1739.818,772.15225)"
       id="g3208">
      <circle
         r="19.777945"
         cy="253.70235"
         cx="44.366737"
         id="circle3204"
         style="opacity:0.297;fill:#000000;fill-opacity:1;stroke:none;stroke-width:1.065;stroke-linecap:round;stroke-linejoin:bevel;stroke-miterlimit:4;stroke-dasharray:4.26, 4.26;stroke-dashoffset:1.20756;stroke-opacity:1;paint-order:markers fill stroke;filter:url(#filter3929-7)"
         transform="matrix(0.99001962,0,0,0.99001962,513.67815,0.26258923)" />
      <circle
         style="opacity:1;fill:url(#linearGradient5724);fill-opacity:1;stroke:none;stroke-width:1.05437;stroke-linecap:round;stroke-linejoin:bevel;stroke-miterlimit:4;stroke-dasharray:4.21748, 4.21748;stroke-dashoffset:1.20756;stroke-opacity:1;paint-order:markers fill stroke"
         id="circle3206"
         cx="557.60211"
         cy="251.43289"
         r="19.580553" />
    </g>
    <g
       id="g3214"
       transform="matrix(0,2.2532875,2.2532875,0,109.34647,-1151.8418)">
      <circle
         transform="matrix(0.99001962,0,0,0.99001962,513.67815,0.26258923)"
         style="opacity:0.297;fill:#000000;fill-opacity:1;stroke:none;stroke-width:1.065;stroke-linecap:round;stroke-linejoin:bevel;stroke-miterlimit:4;stroke-dasharray:4.26, 4.26;stroke-dashoffset:1.20756;stroke-opacity:1;paint-order:markers fill stroke;filter:url(#filter3929-7)"
         id="circle3210"
         cx="44.366737"
         cy="253.70235"
         r="19.777945" />
      <circle
         r="19.580553"
         cy="251.43289"
         cx="557.60211"
         id="circle3212"
         style="opacity:1;fill:url(#linearGradient5726);fill-opacity:1;stroke:none;stroke-width:1.05437;stroke-linecap:round;stroke-linejoin:bevel;stroke-miterlimit:4;stroke-dasharray:4.21748, 4.21748;stroke-dashoffset:1.20756;stroke-opacity:1;paint-order:markers fill stroke" />
    </g>
    <g
       id="g3220"
       transform="matrix(-3.1917825,-1.5573335,-1.5573335,3.1917825,2273.7752,-1688.7622)">
      <path
         inkscape:connector-curvature="0"
         id="path3216"
         d="m 168.53459,-98.493354 c -23.25177,0.26235 -53.80955,17.44854 -48.24371,42.76314 6.89015,31.41896 15.52278,55.78946019 1.28397,87.558144 -6.56735,14.651169 -16.51604,27.690225 -22.027502,42.763914 -5.51146,15.073689 -5.5034,33.919846 5.986582,45.125496 12.71472,12.40402 33.17391,10.42836 50.07321,15.91758 19.36492,6.28699 34.58459,23.87755 38.03521,43.9459 1.63021,9.50695 1.08605,20.12039 7.15512,27.61798 5.26433,6.49923 14.4914,8.80011 22.76198,7.50063 8.27059,-1.2995 15.71988,-5.68067 22.48764,-10.59908 42.75086,-33.1197 61.66003,-93.02031 33.16261,-136.069874 C 262.92192,44.409237 233.80362,29.17194 225.68939,1.6507062 c -5.53943,-18.7814202 0.19627,-39.3357502 -4.42037,-58.3620802 -5.35303,-22.00702 -25.64295,-39.5215 -48.19389,-41.60646 -1.47231,-0.13552 -2.99043,-0.193 -4.54054,-0.17552 z"
         style="opacity:0.472;fill:#0f0f0f;fill-opacity:1;stroke:none;stroke-width:8.59334;stroke-linecap:round;stroke-linejoin:bevel;stroke-miterlimit:4;stroke-dasharray:34.3733, 34.3733;stroke-dashoffset:1.20756;stroke-opacity:1;paint-order:markers fill stroke;filter:url(#filter3810-4)"
         transform="matrix(-0.04539151,-0.40341428,0.40341428,-0.04539151,305.68514,740.83117)" />
      <path
         style="opacity:1;fill:url(#linearGradient3600);fill-opacity:1;stroke:none;stroke-width:3.48855;stroke-linecap:round;stroke-linejoin:bevel;stroke-miterlimit:4;stroke-dasharray:13.9542, 13.9542;stroke-dashoffset:1.20756;stroke-opacity:1;paint-order:markers fill stroke"
         d="m 258.30147,677.31267 c 1.16127,9.36819 9.48149,20.91554 19.44112,17.52113 12.36211,-4.20574 21.80166,-8.79449 35.26393,-4.49237 6.20858,1.98432 11.92032,5.4059 18.25144,6.94508 6.33111,1.53919 13.93355,0.68048 17.93253,-4.46338 4.42681,-5.69234 2.70113,-13.85619 4.14848,-20.92277 1.65726,-8.09746 8.0627,-15.03575 16.00193,-17.33872 3.76123,-1.08918 8.06754,-1.35143 10.8167,-4.1401 2.38293,-2.41872 2.8923,-6.2455 1.99266,-9.52298 -0.89965,-3.27748 -3.00522,-6.08377 -5.29657,-8.59072 -15.30149,-15.74296 -40.32456,-20.65221 -56.39782,-7.20186 -8.78983,7.64292 -13.61505,20.08131 -24.3492,24.60394 -7.32524,3.0872 -15.8775,1.70631 -23.34344,4.43238 -8.63496,3.15842 -14.77957,12.13868 -14.59705,21.33068 0.0122,0.60011 0.0578,1.21516 0.13525,1.8397 z"
         id="path3218"
         inkscape:connector-curvature="0" />
    </g>
    <g
       id="g3226"
       transform="matrix(2.2350298,0.85696199,0.85696199,-2.2350298,-1177.5098,76.069669)">
      <circle
         transform="matrix(0.99001962,0,0,0.99001962,513.67815,0.26258923)"
         style="opacity:0.297;fill:#000000;fill-opacity:1;stroke:none;stroke-width:1.065;stroke-linecap:round;stroke-linejoin:bevel;stroke-miterlimit:4;stroke-dasharray:4.26, 4.26;stroke-dashoffset:1.20756;stroke-opacity:1;paint-order:markers fill stroke;filter:url(#filter3929-7)"
         id="circle3222"
         cx="44.366737"
         cy="253.70235"
         r="19.777945" />
      <circle
         r="19.580553"
         cy="251.43289"
         cx="557.60211"
         id="circle3224"
         style="opacity:1;fill:url(#linearGradient3602);fill-opacity:1;stroke:none;stroke-width:1.05437;stroke-linecap:round;stroke-linejoin:bevel;stroke-miterlimit:4;stroke-dasharray:4.21748, 4.21748;stroke-dashoffset:1.20756;stroke-opacity:1;paint-order:markers fill stroke" />
    </g>
    <rect
       style="opacity:1;fill:url(#linearGradient16681);fill-opacity:1;stroke:none;stroke-width:3.78229;stroke-linecap:round;stroke-linejoin:bevel;stroke-miterlimit:4;stroke-dasharray:15.1292, 15.1292;stroke-dashoffset:4.28858;stroke-opacity:1;paint-order:markers fill stroke"
       id="rect16679-5-6"
       width="508"
       height="795.7688"
       x="1.5301391e-06"
       y="7.3271891e-05"
       inkscape:export-filename="C:\Users\user\Desktop\splash_gredient_bg.png"
       inkscape:export-xdpi="124.30058"
       inkscape:export-ydpi="124.30058"
       transform="matrix(0,1,1,0,0,0)" />
  </g>
</svg>
